…
```r
clean_names(grizzy)
```

```
## # A tibble: 494 × 3
##    bear_id longitude latitude
##      <dbl>     <dbl>    <dbl>
##  1       7     -149.     62.7
##  2      57     -153.     58.4
##  3      69     -145.     62.4
##  4      75     -153.     59.9
##  5     104     -143.     61.1
##  6     108     -150.     62.9
##  7     115     -152.     68.0
##  8     116     -147.     62.6
##  9     125     -157.     60.2
## 10     135     -156.     58.9
## # … with 484 more rows
```
…
```r
clean_names(wolves)
```

```
## # A tibble: 1,986 × 23
##    pop     year age_cat sex   color   lat  long habitat human pop_dens…¹ pack_…²
##    <chr>  <dbl> <chr>   <chr> <chr> <dbl> <dbl>   <dbl> <dbl>      <dbl>   <dbl>
##  1 AK.PEN  2006 S       F     G      57.0 -158.    254.  10.4          8    8.78
##  2 AK.PEN  2006 S       M     G      57.0 -158.    254.  10.4          8    8.78
##  3 AK.PEN  2006 A       F     G      57.0 -158.    254.  10.4          8    8.78
##  4 AK.PEN  2006 S       M     B      57.0 -158.    254.  10.4          8    8.78
##  5 AK.PEN  2006 A       M     B      57.0 -158.    254.  10.4          8    8.78
##  6 AK.PEN  2006 A       M     G      57.0 -158.    254.  10.4          8    8.78
##  7 AK.PEN  2006 A       F     G      57.0 -158.    254.  10.4          8    8.78
##  8 AK.PEN  2006 P       M     G      57.0 -158.    254.  10.4          8    8.78
##  9 AK.PEN  2006 S       F     G      57.0 -158.    254.  10.4          8    8.78
## 10 AK.PEN  2006 P       M     G      57.0 -158.    254.  10.4          8    8.78
## # … with 1,976 more rows, 12 more variables: standard_habitat <dbl>,
## #   standard_human <dbl>, standard_pop <dbl>, standard_packsize <dbl>,
## #   standard_latitude <dbl>, standard_longitude <dbl>, cav_binary <dbl>,
## #   cdv_binary <dbl>, cpv_binary <dbl>, chv_binary <dbl>, neo_binary <dbl>,
## #   toxo_binary <dbl>, and abbreviated variable names ¹​pop_density, ²​pack_size
```
…
