…
```
## # A tibble: 1 × 1
##   `max(sydneybeaches_long_average$"2018", na.rm = TRUE)`
##                                                    <int>
## 1                                                   2100
```

```r
sydneybeaches_long_average %>%
  group_by(sydneybeaches_long_average$"2018" == 2100)
```

```
## # A tibble: 2,656 × 10
## # Groups:   sydneybeaches_long_average$"2018" == 2100 [3]
##    sydneybeaches…¹ day   month `2013` `2014` `2015` `2016` `2017` `2018` sydne…²
##    <chr>           <chr> <chr>  <int>  <int>  <int>  <int>  <int>  <int> <lgl>  
##  1 Clovelly Beach  02    01        19     NA     NA     NA     NA     NA NA     
##  2 Clovelly Beach  06    01         3     NA     NA     NA     NA     NA NA     
##  3 Clovelly Beach  12    01         2     NA     NA     NA     NA     NA NA     
##  4 Clovelly Beach  18    01        13     NA     NA     NA     NA     NA NA     
##  5 Clovelly Beach  30    01         8     NA     NA     NA      8     NA NA     
##  6 Clovelly Beach  05    02         7     NA     NA     NA     NA     NA NA     
##  7 Clovelly Beach  11    02        11     NA     NA     NA     NA     NA NA     
##  8 Clovelly Beach  23    02        97     NA     NA     NA     NA     NA NA     
##  9 Clovelly Beach  07    03         3     NA     NA     NA     NA     NA NA     
## 10 Clovelly Beach  25    03         0     NA     11     NA     NA     NA NA     
## # … with 2,646 more rows, and abbreviated variable names ¹​sydneybeaches.site,
## #   ²​`sydneybeaches_long_average$"2018" == 2100`
```
…
