…
```r
filter(life_expect, life_expect$life_expectancy == "Middle")
```

```
## # A tibble: 31 × 3
##    common_name                      diet          life_expectancy
##    <chr>                            <chr>         <chr>          
##  1 "American Wigeon"                Vegetation    Middle         
##  2 "Barrow's Goldeneye"             Invertebrates Middle         
##  3 "Black Scoter"                   Invertebrates Middle         
##  4 "Blue-winged Teal"               Vegetation    Middle         
##  5 "Bufflehead"                     Invertebrates Middle         
##  6 "Cackling and Canada Goose \xa0" Vegetation    Middle         
##  7 "Canvasback"                     Vegetation    Middle         
##  8 "Cinnamon Teal"                  Vegetation    Middle         
##  9 "Common Eider"                   Invertebrates Middle         
## 10 "Common Goldeneye"               Invertebrates Middle         
## # … with 21 more rows
```
…
