…
## Questions
The questions below are open-ended and have many possible solutions. Your approach should, where appropriate, include numerical summaries and visuals. Be creative; assume you are building an analysis that you would ultimately present to an audience of stakeholders. Feel free to try out different `geoms` if they more clearly present your results.  

**1. Use the function(s) of your choice to get an idea of the overall structure of the data frame, including its dimensions, column names, variable classes, etc. As part of this, determine how NA's are treated in the data.**  


```r
gapminder %>%
  clean_names()
```

```
## # A tibble: 1,704 × 6
##    country     continent  year life_exp      pop gdp_percap
##    <fct>       <fct>     <int>    <dbl>    <int>      <dbl>
##  1 Afghanistan Asia       1952     28.8  8425333       779.
##  2 Afghanistan Asia       1957     30.3  9240934       821.
##  3 Afghanistan Asia       1962     32.0 10267083       853.
##  4 Afghanistan Asia       1967     34.0 11537966       836.
##  5 Afghanistan Asia       1972     36.1 13079460       740.
##  6 Afghanistan Asia       1977     38.4 14880372       786.
##  7 Afghanistan Asia       1982     39.9 12881816       978.
##  8 Afghanistan Asia       1987     40.8 13867957       852.
##  9 Afghanistan Asia       1992     41.7 16317921       649.
## 10 Afghanistan Asia       1997     41.8 22227415       635.
## # … with 1,694 more rows
```
…
```r
gapminder %>%
  group_by(country, year) %>%
  filter(country %in% c("Kuwait","Jordan","Oman","Saudi Arabia","Djibouti")) %>%
  summarise(gdpPercap)
```

```
## `summarise()` has grouped output by 'country'. You can override using the
## `.groups` argument.
```

```
## # A tibble: 60 × 3
## # Groups:   country [5]
##    country   year gdpPercap
##    <fct>    <int>     <dbl>
##  1 Djibouti  1952     2670.
##  2 Djibouti  1957     2865.
##  3 Djibouti  1962     3021.
##  4 Djibouti  1967     3020.
##  5 Djibouti  1972     3694.
##  6 Djibouti  1977     3082.
##  7 Djibouti  1982     2879.
##  8 Djibouti  1987     2880.
##  9 Djibouti  1992     2377.
## 10 Djibouti  1997     1895.
## # … with 50 more rows
```
…
