…
```r
superhero_info_interest <- superhero_info[,c(1, 4, 9)]
```

## Not Human
4. List all of the superheros that are not human.


```r
non_humans = filter(superhero_info_interest, superhero_info_interest$race != "Human")
non_humans
```

```
## # A tibble: 222 × 3
##    name         race              alignment
##    <chr>        <chr>             <chr>    
##  1 Abe Sapien   Icthyo Sapien     good     
##  2 Abin Sur     Ungaran           good     
##  3 Abomination  Human / Radiation bad      
##  4 Abraxas      Cosmic Entity     bad      
##  5 Ajax         Cyborg            bad      
##  6 Alien        Xenomorph XX121   bad      
##  7 Amazo        Android           bad      
##  8 Angel        Vampire           good     
##  9 Angel Dust   Mutant            good     
## 10 Anti-Monitor God / Eternal     bad      
## # … with 212 more rows
```
…
8. Among the bad guys, who are the male humans over 200 inches in height?



```r
filter(bad_superhero, bad_superhero$height>200)
```

```
## # A tibble: 25 × 10
##    name       gender Eye c…¹ race  hair_…² height publi…³ skin_…⁴ align…⁵ weight
##    <chr>      <chr>  <chr>   <chr> <chr>    <dbl> <chr>   <chr>   <chr>    <dbl>
##  1 Abominati… Male   green   Huma… No Hair    203 Marvel… <NA>    bad        441
##  2 Alien      Male   <NA>    Xeno… No Hair    244 Dark H… black   bad        169
##  3 Amazo      Male   red     Andr… <NA>       257 DC Com… <NA>    bad        173
##  4 Apocalypse Male   red     Muta… Black      213 Marvel… grey    bad        135
##  5 Bane       Male   <NA>    Human <NA>       203 DC Com… <NA>    bad        180
##  6 Bloodaxe   Female blue    Human Brown      218 Marvel… <NA>    bad        495
##  7 Darkseid   Male   red     New … No Hair    267 DC Com… grey    bad        817
##  8 Doctor Do… Male   brown   Human Brown      201 Marvel… <NA>    bad        187
##  9 Doctor Do… Male   brown   <NA>  Brown      201 Marvel… <NA>    bad        132
## 10 Doomsday   Male   red     Alien White      244 DC Com… <NA>    bad        412
## # … with 15 more rows, and abbreviated variable names ¹​`Eye color`,
## #   ²​hair_color, ³​publisher, ⁴​skin_color, ⁵​alignment
```
…
```
## [1] 10
```

10. Let's explore who the really "big" superheros are. In the `superhero_info` data, which have a height over 200 or weight greater than or equal to 450?

```r
filter(superhero_info, superhero_info$height > 200| superhero_info$weight>=450)
```

```
## # A tibble: 60 × 10
##    name       gender Eye c…¹ race  hair_…² height publi…³ skin_…⁴ align…⁵ weight
##    <chr>      <chr>  <chr>   <chr> <chr>    <dbl> <chr>   <chr>   <chr>    <dbl>
##  1 A-Bomb     Male   yellow  Human No Hair    203 Marvel… <NA>    good       441
##  2 Abominati… Male   green   Huma… No Hair    203 Marvel… <NA>    bad        441
##  3 Alien      Male   <NA>    Xeno… No Hair    244 Dark H… black   bad        169
##  4 Amazo      Male   red     Andr… <NA>       257 DC Com… <NA>    bad        173
##  5 Ant-Man    Male   blue    Human Blond      211 Marvel… <NA>    good       122
##  6 Anti-Venom Male   blue    Symb… Blond      229 Marvel… <NA>    <NA>       358
##  7 Apocalypse Male   red     Muta… Black      213 Marvel… grey    bad        135
##  8 Bane       Male   <NA>    Human <NA>       203 DC Com… <NA>    bad        180
##  9 Beta Ray … Male   <NA>    <NA>  No Hair    201 Marvel… <NA>    good       216
## 10 Bloodaxe   Female blue    Human Brown      218 Marvel… <NA>    bad        495
## # … with 50 more rows, and abbreviated variable names ¹​`Eye color`,
## #   ²​hair_color, ³​publisher, ⁴​skin_color, ⁵​alignment
```
…
